<?xml version="1.0" encoding="UTF-8" standalone="no"?>
<svg
   xmlns:dc="http://purl.org/dc/elements/1.1/"
   xmlns:cc="http://creativecommons.org/ns#"
   xmlns:rdf="http://www.w3.org/1999/02/22-rdf-syntax-ns#"
   xmlns:svg="http://www.w3.org/2000/svg"
   xmlns="http://www.w3.org/2000/svg"
   xmlns:sodipodi="http://sodipodi.sourceforge.net/DTD/sodipodi-0.dtd"
   xmlns:inkscape="http://www.inkscape.org/namespaces/inkscape"
   class="nostash"
   width="48px"
   height="48px"
   viewBox="0 0 48 48"
   id="svg2985"
   version="1.1"
   inkscape:version="1.0.2 (e86c870879, 2021-01-15)"
   sodipodi:docname="logo.svg"
   inkscape:export-filename="/home/dschep/logo.png"
   inkscape:export-xdpi="168.75"
   inkscape:export-ydpi="168.75">
  <defs
     id="defs3003">
    <style
       id="style2998">
.nostash #stache, .nostash #trail-flair {
    display: none !important;
}
@media screen and (min-width: 64px) {
    #stache {
        stroke-width: 1.5 !important;
    }
}
@media screen and (max-width: 32px) {
    #stache {
        stroke-dasharray: none !important;
        stroke-width: 3 !important;
    }
    #trail-flair {
        display: none;
    }
}
@media screen and (max-width: 16px) {
    #stache {
        stroke-width: 4 !important;
        stroke-opacity: 1 !important;
    }
    #paper {
        stroke: none !important;
    }
    #water, #forests {
        display: none;
    }
    #shadow {
        fill-opacity: .05 !important;
    }
}
.flat {
    background-color: #e1c27f;
}
.flat #shadow, .flat #paper {
    display: none !important;
}
.monochrome #stache {
    stroke: white !important;
    stroke-opacity: 1 !important;
}
.monochrome #paper {
    stroke: black !important;
    fill: black !important;
}
.monochrome #water, .monochrome #forests, .mstile #water, .mstile #forests {
    display: none !important;
}
.monochrome #shadow, .mstile #shadow {
    display: none !important;
}
.mstile #paper {
    stroke: white !important;
    fill: white !important;
}
.mstile #trail-flair {
    fill: #93c54b !important;
    fill-opacity: 1 !important;
}
.mstile #stache {
    stroke: #93c54b !important;
    stroke-opacity: 1 !important;
}
    </style>
  </defs>
  <sodipodi:namedview
     id="base"
     pagecolor="#ffffff"
     bordercolor="#666666"
     borderopacity="1.0"
     inkscape:pageopacity="0.0"
     inkscape:pageshadow="2"
     inkscape:zoom="8.0000001"
     inkscape:cx="22.247568"
     inkscape:cy="-2.1193018"
     inkscape:current-layer="layer8"
     showgrid="true"
     inkscape:grid-bbox="true"
     inkscape:document-units="px"
     inkscape:window-width="2000"
     inkscape:window-height="1253"
     inkscape:window-x="0"
     inkscape:window-y="0"
     inkscape:window-maximized="1"
     inkscape:document-rotation="0" />
  <metadata
     id="metadata2990">
    <rdf:RDF>
      <cc:Work
         rdf:about="">
        <dc:format>image/svg+xml</dc:format>
        <dc:type
           rdf:resource="http://purl.org/dc/dcmitype/StillImage" />
        <dc:title></dc:title>
      </cc:Work>
    </rdf:RDF>
  </metadata>
  <g
     inkscape:groupmode="layer"
     id="layer3"
     inkscape:label="Base"
     style="display:inline">
    <path
       style="fill:#e1c27f;fill-opacity:1;stroke:#9d8b5a;stroke-width:2;stroke-linecap:butt;stroke-linejoin:miter;stroke-miterlimit:4;stroke-opacity:1;stroke-dasharray:none"
       d="m 1.2343981,2.5981345 c 0,0 1.6095087,12.0986955 2.2240872,22.1683805 0.2132504,10.004525 0.2060501,21.588828 0.2060501,21.588828 0,0 5.6708787,-0.286126 15.8260736,-1.294539 l 15.270504,1.786656 11.804799,-2.762083 c 0,0 -0.855146,-8.319667 -1.392904,-17.924598 C 44.635253,16.55585 44.984122,1.3423207 44.984122,1.3423207 L 31.600723,3.0497204 16.982259,1.1059468 z"
       id="paper"
       inkscape:connector-curvature="0"
       sodipodi:nodetypes="ccccccscccc"
       inkscape:label="#path6136" />
  </g>
  <g
     inkscape:groupmode="layer"
     id="layer4"
     inkscape:label="water"
     style="display:inline;opacity:0.75">
    <g
       id="water"
       inkscape:label="#g3769"
       transform="translate(0,2.25)">
      <path
         sodipodi:nodetypes="csssssscc"
         inkscape:connector-curvature="0"
         id="path7739"
         d="m 25.189807,6.6917636 c 2.966441,2.7210098 4.313653,5.0150524 2.285786,6.6002384 -2.027868,1.585187 -3.526239,1.850564 -2.600206,4.086812 0.926035,2.236249 -1.811008,2.649056 -7.078553,1.80338 C 12.529288,18.336518 8.3387229,14.483292 5.6853704,11.555519 3.5902117,9.2436694 5.6622724,7.2578814 7.5377619,6.6551814 9.4132489,6.0524821 13.151905,6.5962154 13.962521,4.5675513 c 0.810615,-2.0286628 3.163661,-3.92758419 5.540565,-3.2635484 10.241563,3.3019789 5.134962,3.6952219 5.686721,5.3877607 z"
         style="fill:#b2c3e0;fill-opacity:1;stroke:#97b2d5;stroke-width:0.85748971px;stroke-linecap:butt;stroke-linejoin:miter;stroke-opacity:1" />
      <path
         sodipodi:nodetypes="csccsscc"
         inkscape:connector-curvature="0"
         id="path7739-5"
         d="m 29.324587,34.057169 c -0.28792,-0.98565 -0.343075,-2.117595 -0.941098,-3.079585 -0.598023,-0.961991 -1.670795,-1.224853 -0.673422,-2.229974 1.737967,-1.65504 0.03064,-1.178184 1.927924,-2.007576 1.30375,-0.668084 2.492101,0.160465 2.625131,0.978945 0.13303,0.818479 2.617787,0.560155 3.53555,1.059781 0.917764,0.499625 -0.08845,3.122931 -0.614555,4.04244 -2.48133,3.9256 -4.645111,2.351209 -5.85953,1.235969 z"
         style="fill:#b2c3e0;fill-opacity:1;stroke:#97b1d5;stroke-width:0.38999999;stroke-linecap:butt;stroke-linejoin:miter;stroke-miterlimit:4;stroke-opacity:1;stroke-dasharray:none" />
    </g>
  </g>
  <g
     inkscape:groupmode="layer"
     id="layer5"
     inkscape:label="forest"
     style="display:inline">
    <g
       id="forests"
       inkscape:label="#g3773">
      <path
         inkscape:connector-curvature="0"
         id="path7781"
         d="m 8.6691597,21.256553 c 3.1398633,0.459492 10.6448993,1.837968 11.7936293,4.058846 1.14873,2.220878 2.910116,12.482867 1.608222,13.631597 -1.301894,1.14873 -7.122126,-0.995566 -9.496168,-3.752518 C 10.2008,32.437525 7.597012,29.833737 5.98879,30.140065 4.3805679,30.446393 3.3084199,27.459695 3.4615839,26.464129 3.6147479,25.468563 5.529298,21.256553 9.2052337,21.409717"
         style="fill:#8acd81;fill-opacity:1;stroke:none" />
      <path
         sodipodi:nodetypes="csssssc"
         inkscape:connector-curvature="0"
         id="path7781-0"
         d="m 36.526288,10.71085 c -2.133584,-1.0197368 -0.157415,-2.6202251 0.0057,-3.9529534 0.1631,-1.3327275 -2.057198,-3.9333329 -0.556874,-4.1366048 1.500322,-0.2032711 4.735458,-0.3095254 5.240971,1.5879287 0.505512,1.8974566 1.378607,6.3829635 2.720432,6.6520385 1.341826,0.269072 0.769481,1.940183 0.197428,2.366337 -0.572052,0.426154 -2.41304,0.144006 -5.08778,-0.86995"
         style="fill:#8acd81;fill-opacity:1;stroke:none" />
    </g>
  </g>
  <g
     inkscape:groupmode="layer"
     id="layer6"
     inkscape:label="Stache"
     style="display:inline">
    <path
       id="stache"
       style="fill:none;stroke:#000000;stroke-width:2;stroke-linecap:square;stroke-linejoin:round;stroke-miterlimit:4;stroke-opacity:0.74891775999999999;stroke-dasharray:2,4;stroke-dashoffset:1.2;marker-start:none;marker-mid:none;marker-end:none"
       d="m 11.853397,26.359176 c -5.9741465,-2.157233 -8.6595677,12.478777 -0.229797,9.87352 5.483676,-1.694753 12.185427,-5.291374 12.620689,-9.355956 2.336915,3.353969 9.942447,3.283094 15.565191,2.130854 8.64355,-1.771278 0.291491,-12.108225 -3.908185,-7.343057"
       inkscape:connector-curvature="0"
       sodipodi:nodetypes="cscsc"
       inkscape:label="#path2998" />
  </g>
  <g
     id="layer1"
     inkscape:label="Trail flair"
     inkscape:groupmode="layer"
     style="display:inline">
    <path
       inkscape:connector-curvature="0"
       id="trail-flair"
       style="fill:#000000;fill-opacity:0.68627453;stroke:none"
       d="m 19.159555,26.644019 c 0,0 -0.776883,0.12113 -2.768728,1.318789 -1.991844,1.197656 -2.936308,2.042847 -2.936308,2.042847 0,0 0.204012,-0.155741 -0.347912,-0.976341 -0.551925,-0.820599 -0.98727,-0.935356 -0.98727,-0.935356 l 6.131273,-3.388959 z m -4.801448,-3.047863 3.203348,6.121954 -1.42371,0.783041 -3.844019,-5.837212 z"
       inkscape:label="#path5928" />
  </g>
  <g
     inkscape:groupmode="layer"
     id="layer8"
     inkscape:label="Shadow"
     style="display:inline">
    <path
       opacity="1"
       fill="#1e3050"
       d="m 33.367182,7.7482602 c 0.744691,-0.4062918 1.65288,-0.317968 2.311974,0.2098885 l 4.589746,3.7171923 c 0.430288,0.348486 0.706158,0.850982 0.764101,1.402614 0.05794,0.551633 -0.107494,1.100483 -0.45598,1.530772 l -3.717192,4.589747 c -0.534347,0.659776 -1.405043,0.92839 -2.217903,0.685702 -0.81286,-0.242687 -1.398139,-0.942333 -1.486757,-1.786005 l -0.216779,-2.063755 -2.076734,0.218136 c -0.655469,0.06885 -1.239961,0.438631 -1.574131,1.005205 l -2.366523,3.955767 -2.959255,-3.186387 1.741237,-2.912439 c 1.009685,-1.693915 2.762478,-2.809746 4.722396,-3.015615 l 2.076733,-0.218136 -0.218136,-2.0767348 c -0.08794,-0.8371829 0.33851,-1.6496604 1.083202,-2.055952 z m -13.869909,17.7488338 2.959254,3.186388 -1.741237,2.91244 c -1.009685,1.693916 -2.762477,2.809745 -4.722395,3.015613 l -4.153468,0.436277 C 10.690734,35.168474 9.6652122,34.337911 9.5445543,33.189217 9.4238962,32.040524 10.254456,31.015003 11.403151,30.894344 l 4.153467,-0.436276 c 0.655469,-0.06885 1.239961,-0.438632 1.574132,-1.005205 z m 19.102539,10.328915 c -0.534346,0.659776 -1.405043,0.92839 -2.217902,0.685702 -0.81286,-0.242687 -1.398139,-0.942332 -1.486758,-1.786005 L 34.677016,32.64897 32.606771,32.866428 C 30.646853,33.072293 28.700463,32.345026 27.360843,30.89788 L 15.99643,18.653845 C 15.551827,18.169073 14.903257,17.928811 14.247787,17.997661 L 10.09432,18.433939 C 8.9456255,18.554596 7.9201043,17.724036 7.7994465,16.575343 7.6787887,15.42665 8.5093486,14.401128 9.658043,14.280469 l 4.153467,-0.436277 c 1.959918,-0.205865 3.906308,0.521404 5.245928,1.968551 L 30.42185,28.056776 c 0.444603,0.484773 1.093174,0.725034 1.748643,0.656184 l 2.076734,-0.218136 -0.218137,-2.076736 c -0.08794,-0.837182 0.33851,-1.64966 1.083202,-2.055951 0.744691,-0.406292 1.65288,-0.317969 2.311974,0.209887 l 4.589746,3.717193 c 0.430288,0.348486 0.706158,0.850982 0.764101,1.402614 0.05795,0.551634 -0.107494,1.100484 -0.45598,1.530772 l -3.717192,4.589746 z"
       id="path90"
       style="stroke-width:0.065255" />
    <path
       sodipodi:nodetypes="ccccc"
       inkscape:connector-curvature="0"
       id="shadow"
       d="M 19.486703,46.063033 34.822541,47.873818 31.624428,2.0414419 17.009335,0.10130665 z"
       style="fill:#000000;fill-opacity:0.12;stroke:none;display:inline"
       inkscape:label="#path3857" />
  </g>
</svg>
